{
  "AppSyncApiName": "shortcutsquiz",
  "DynamoDBBillingMode": "PAY_PER_REQUEST",
  "DynamoDBEnableServerSideEncryption": false,
  "AuthCognitoUserPoolId": {
    "Fn::GetAtt": [
      "authshortcutsquiz71de7471",
      "Outputs.UserPoolId"
    ]
  }
}