[
  {
    "Effect": "Allow",
    "Action": [
      "cognito-idp:CreateGroup",
      "cognito-idp:GetGroup",
      "cognito-idp:AdminAddUserToGroup"
    ],
    "Resource": [
      "arn:aws:cognito-idp:eu-west-1:573674976730:userpool/eu-west-1_Ftvroz2vB"
    ]
  }
]
