{
  "resourceName": "quiz",
  "policyUUID": "c6cd7b30",
  "bucketName": "shortcutsquiz1cb29d8c3f4a4363b976b28848f03c51",
  "storageAccess": "auth",
  "guestAccess": [],
  "authAccess": [
    "READ"
  ],
  "triggerFunction": "NONE",
  "groupAccess": {}
}